…
    ## Parsed with column specification:
    ## cols(
    ##   `Patient ID` = col_character(),
    ##   `Group and location` = col_character(),
    ##   Sex = col_character(),
    ##   Baseline = col_character(),
    ##   `Week 4` = col_character(),
    ##   `Week 8` = col_character()
    ## )

    pi <- pain_intensity

    print(pi)

    ## # A tibble: 161 × 6
    ##    `Patient ID` `Group and location`    Sex       Baseline       `Week 4`
    ##           <chr>                <chr>  <chr>          <chr>          <chr>
    ## 1          <NA>                NA_NA   <NA> Pain intensity Pain intensity
    ## 2            J1       P_Johannesburg Female              8           9999
    ## 3            J3       T_Johannesburg Female              9           9999
    ## 4            J4       P_Johannesburg Female              5              3
    ## 5            J5       P_Johannesburg Female              7           9999
    ## 6            J6       P_Johannesburg Female              7           9999
    ## 7            J7       T_Johannesburg Female              8              8
    ## 8            J9       T_Johannesburg Female             10              8
    ## 9           J10       T_Johannesburg   Male             10              9
    ## 10          J11       P_Johannesburg Female              9              8
    ## # ... with 151 more rows, and 1 more variables: `Week 8` <chr>

    #1
    #The data given in this question isnt tidy beacuse it is presented in wide format as compared to long format. Furthermore there are values in the table which are out of range and would affect the distribution of the distribution of the data set when performing the respeective statistical tests . As a result all columns which have '9999' should be omited


    #2
    # Tidy data
     
    pi2 <- pi[,-(1:3),drop = FALSE] #Column 1-3 removed for plotting graph

    pi2

    ## # A tibble: 161 × 3
    ##          Baseline       `Week 4`       `Week 8`
    ##             <chr>          <chr>          <chr>
    ## 1  Pain intensity Pain intensity Pain intenisty
    ## 2               8           9999           9999
    ## 3               9           9999           9999
    ## 4               5              3              0
    ## 5               7           9999           9999
    ## 6               7           9999           9999
    ## 7               8              8           9999
    ## 8              10              8              8
    ## 9              10              9              9
    ## 10              9              8             10
    ## # ... with 151 more rows

    pi3 <- pi2[-c(1),] #Row 1 removed
    pi3

    ## # A tibble: 160 × 3
    ##    Baseline `Week 4` `Week 8`
    ##       <chr>    <chr>    <chr>
    ## 1         8     9999     9999
    ## 2         9     9999     9999
    ## 3         5        3        0
    ## 4         7     9999     9999
    ## 5         7     9999     9999
    ## 6         8        8     9999
    ## 7        10        8        8
    ## 8        10        9        9
    ## 9         9        8       10
    ## 10        0     9999        4
    ## # ... with 150 more rows
…
    summary(fer)

    ##     State             Fertility        Catholic      
    ##  Length:47          Min.   :35.00   Min.   :  2.150  
    ##  Class :character   1st Qu.:64.70   1st Qu.:  5.195  
    ##  Mode  :character   Median :70.40   Median : 15.140  
    ##                     Mean   :70.14   Mean   : 41.144  
    ##                     3rd Qu.:78.45   3rd Qu.: 93.125  
    ##                     Max.   :92.50   Max.   :100.000

    fer3 <- fer2[,-(3), drop = FALSE] #omited column 3 for practicalities sake.
    fer3

    ## # A tibble: 47 × 3
    ##           State Fertility ratio
    ##           <chr>     <dbl> <dbl>
    ## 1    Courtelary      80.2  9.96
    ## 2      Delemont      83.1 84.84
    ## 3  Franches-Mnt      92.5 93.40
    ## 4       Moutier      85.8 33.77
    ## 5    Neuveville      76.9  5.16
    ## 6    Porrentruy      76.1 90.57
    ## 7         Broye      83.8 92.85
    ## 8         Glane      92.4 97.16
    ## 9       Gruyere      82.4 97.67
    ## 10       Sarine      82.9 91.38
    ## # ... with 37 more rows
…
    coef(lm(ratio ~ Fertility, data = fer3))# Allows us to get intercepts for abline showing a bositive association

    ## (Intercept)   Fertility 
    ##   -67.44108     1.54806

    fer3a <-fer3[, -(1), drop = FALSE]
    fer3a

    ## # A tibble: 47 × 2
    ##    Fertility ratio
    ##        <dbl> <dbl>
    ## 1       80.2  9.96
    ## 2       83.1 84.84
    ## 3       92.5 93.40
    ## 4       85.8 33.77
    ## 5       76.9  5.16
    ## 6       76.1 90.57
    ## 7       83.8 92.85
    ## 8       92.4 97.16
    ## 9       82.4 97.67
    ## 10      82.9 91.38
    ## # ... with 37 more rows
…
    cy1 <- gather(cy, 'Test', 'Value',control:treatment_2) #Data is in long format which will be used for the statistical testing
    print(cy1)

    ## # A tibble: 30 × 2
    ##       Test Value
    ##      <chr> <dbl>
    ## 1  control  4.17
    ## 2  control  5.58
    ## 3  control  5.18
    ## 4  control  6.11
    ## 5  control  4.50
    ## 6  control  4.61
    ## 7  control  5.17
    ## 8  control  4.53
    ## 9  control  5.33
    ## 10 control  5.14
    ## # ... with 20 more rows
…
    #import data

    outcomes <- read_csv('https://dl.dropboxusercontent.com/u/11805474/painblogr/biostats/exam-data-2017/question_4.csv')

    ## Parsed with column specification:
    ## cols(
    ##   Diet = col_character(),
    ##   Condition = col_character()
    ## )

    oc <- outcomes
    print(oc) # n=605

    ## # A tibble: 605 × 2
    ##     Diet     Condition
    ##    <chr>         <chr>
    ## 1    AHA Heart_disease
    ## 2    AHA Heart_disease
    ## 3    AHA Heart_disease
    ## 4    AHA Heart_disease
    ## 5    AHA Heart_disease
    ## 6    AHA Heart_disease
    ## 7    AHA Heart_disease
    ## 8    AHA Heart_disease
    ## 9    AHA Heart_disease
    ## 10   AHA Heart_disease
    ## # ... with 595 more rows
…
    ## # A tibble: 6 × 2
    ##            Diet Condition
    ##           <chr>     <chr>
    ## 1 Mediterranean   Healthy
    ## 2 Mediterranean   Healthy
    ## 3 Mediterranean   Healthy
    ## 4 Mediterranean   Healthy
    ## 5 Mediterranean   Healthy
    ## 6 Mediterranean   Healthy

    oc1 <- group_by(oc, Diet)
    oc1

    ## Source: local data frame [605 x 2]
    ## Groups: Diet [2]
    ## 
    ##     Diet     Condition
    ##    <chr>         <chr>
    ## 1    AHA Heart_disease
    ## 2    AHA Heart_disease
    ## 3    AHA Heart_disease
    ## 4    AHA Heart_disease
    ## 5    AHA Heart_disease
    ## 6    AHA Heart_disease
    ## 7    AHA Heart_disease
    ## 8    AHA Heart_disease
    ## 9    AHA Heart_disease
    ## 10   AHA Heart_disease
    ## # ... with 595 more rows
…
